ISSS624 - Take-home_Ex2
…
print(busstop_nulls)

  df_name row_count
1 busstop         0

Code

busstop %>% 
  st_drop_geometry() %>% 
  group_by(BUS_STOP_N) %>%
  filter(n()>1) %>%
  ungroup() %>% 
  arrange(BUS_STOP_N)

# A tibble: 32 × 3
   BUS_STOP_N BUS_ROOF_N LOC_DESC            
   <chr>      <chr>      <chr>               
 1 11009      B04        Ghim Moh Ter        
 2 11009      B04-TMNL   GHIM MOH TER        
 3 22501      B02        Blk 662A            
 4 22501      B02        BLK 662A            
 5 43709      B06        BLK 644             
 6 43709      B06        BLK 644             
 7 47201      UNK        <NA>                
 8 47201      NIL        W'LANDS NTH STN     
 9 51071      B21        MACRITCHIE RESERVOIR
10 51071      B21        MACRITCHIE RESERVOIR
# ℹ 22 more rows
…
