ISSS624 - Take-home_Ex1
…
We categorize and preprocess the data into the time frames as shown above

Code

list(origind_agg)

[[1]]
# A tibble: 60,168 × 4
   YEAR_MONTH period               ORIGIN_PT_CODE num_trips
   <chr>      <chr>                <fct>              <dbl>
 1 2023-08    Weekday evening peak 01012               8448
 2 2023-08    Weekday evening peak 01013               7328
 3 2023-08    Weekday evening peak 01019               3608
 4 2023-08    Weekday evening peak 01029               9317
 5 2023-08    Weekday evening peak 01039              12937
 6 2023-08    Weekday evening peak 01059               2133
 7 2023-08    Weekday evening peak 01109                322
 8 2023-08    Weekday evening peak 01112              45010
 9 2023-08    Weekday evening peak 01113              27233
10 2023-08    Weekday evening peak 01119               9323
# ℹ 60,158 more rows
…
# Display the processed data
origind09_stops

# A tibble: 1,524 × 8
   hex_id total_busstops busstop_ids  loc_descriptions      peak_weekday_morning
    <int>          <int> <chr>        <chr>                                <dbl>
 1     34              1 25059        AFT TUAS STH BLVD                       91
 2     65              1 25751        BEF TUAS STH AVE 14                     41
 3     99              1 26379        YONG NAM                                50
 4    127              1 25761        OPP REC S'PORE                         129
 5    129              2 25719, 26389 THE INDEX; BEF TUAS …                 1104
 6    130              1 26369        SEE HUP SENG                            34
 7    131              1 26299        BEF TUAS STH AVE 6                      41
 8    159              1 25741        HALLIBURTON                             66
 9    160              1 25711        OPP THE INDEX                          204
10    161              2 25701, 25709 GLAXOSMITHKLINE; EDG…                  842
# ℹ 1,514 more rows
# ℹ 3 more variables: peak_weekday_evening <dbl>, peak_weekend_morning <dbl>,
#   peak_weekend_evening <dbl>
…
